{
  "files/localbro/local.bro": "0f4f193e4e5700a07328d9ad57ee9659",
  "files/scripts/readme.txt": "62e1fa89fe12a51463f43f8937d7826d",
  "manifests/params.pp": "0ac3c443a8d35d61260303b311f2785e",
  "manifests/broctl.pp": "c1bf93e1fab80540a76e48a3e1a81217",
  "tests/init.pp": "41b07aca5ff9f51935cedbd0e1cbbbe1",
  "metadata.json": "87952ad8f1810b296ccf12a4bd54fa32",
  "README.md": "c8ea49af4381f519572b42fee13611cc",
  "manifests/init.pp": "5413fe22b4cb3f760c6100d447c03973",
  "templates/manager_name.erb": "c223fabc7f4f852b13fb6ac3e3f5d942",
  "templates/proxy_name.erb": "2c7d647b6718c3ba9c057391d650cc27",
  "manifests/pkg.pp": "ae92b4664a0ba57456ac6afa1dc81390",
  "manifests/worker.pp": "12a534ab9359a00fe4d50215a5211c63",
  "templates/networks.cfg.erb": "aacfcf305a02196aa867340123878fc6",
  "templates/node.cfg.erb": "8c8f7131afe1a678eabc1d6747dc5f2d",
  "templates/bro_cron.erb": "75ed72af1c12ca6f05a60d98bc443ba8",
  "files/broctl/readme.txt": "24dd44fadc89e6fdca6d97cf4e17edb5",
  "spec/spec_helper.rb": "a55d1e6483344f8ec6963fcb2c220372",
  "templates/worker_name.erb": "73a360684c713c4cc3b6f4515f157cab",
  "templates/wassup_bro.erb": "b6e40ff857b5f8091f62ccbbf21f18f5",
  "templates/bro_log_purge.erb": "cf61f2832bab15273174aebdab34692f"
}