{
  "name": "panaman-bro",
  "version": "1.1.3",
  "author": "Panaman",
  "summary": "Module to install Bro Network Security Monitor",
  "license": "Apache 2.0",
  "source": "https://github.com/panaman/puppet-bro",
  "issues_url": "https://github.com/panaman/puppet-bro/issues",
  "project_page": "https://github.com/panaman/puppet-bro",
  "dependencies": [
    {"version_requirement":">= 2.1.0","name":"panaman-hostint"},
    {"version_requirement":">= 1.0.3","name":"panaman-tps"},
    {"version_requirement":">= 1.0.0","name":"puppetlabs-concat"},
    {"version_requirement":">= 4.1.0","name":"puppetlabs-stdlib"}
  ]
}
